......................
----------------------------------------------------------------------
Ran 22 tests in 0.010s

OK
Name             Stmts   Miss Branch BrPart  Cover   Missing
------------------------------------------------------------
Collatz.py          36      0     16      2    96%   245->255, 252->245
TestCollatz.py      92      0      0      0   100%
------------------------------------------------------------
TOTAL              128      0     16      2    99%
