...................
----------------------------------------------------------------------
Ran 19 tests in 0.563s

OK
Name             Stmts   Miss Branch BrPart  Cover   Missing
------------------------------------------------------------
Collatz.py          58      0     28      0   100%
TestCollatz.py      83      0      0      0   100%
------------------------------------------------------------
TOTAL              141      0     28      0   100%
